exam number,reg group,surname,forename,ET (extra time 25%),RDR (reader/prompter),RB (rest breaks),SF (sit at front),SR (separate room),WP (word processor),"Other (food, leave immediately, etc)"
9999,7W1,Example,Example,,,,,,,
0,14EX,Smith,John,y,y,,,,y,
3004,14,Alexander-Apt,James,,,,,,y,
3321,14,Aziz,Olivia,25%,,,,,,
3348,14,Middleburgh,Raphi,25%,,,,,y,
3364,14,Smouha,Noy,25%,,,,,,
4022,13WD,Barak,Ophir,25%,,,,,y,
4028,13AW,Benisty,Hannah,,,y,,,,
4049,13ZS,Cass,Joshua,25%,,,,,,
4052,13BP,Coberman,Talia,25%,y,,,y,y,SINGLE SEPARATE ROOM
4068,13BG,Davidoff,Gabriel,25%,,,,,,
4073,13ZB,Domb,Guy,,,,,,y,
4076,13AW,Easlick-Shoolman,Lara,,,y,,,,
4083,13WB,Feld,Naomi,25%,,,,,,Use orange overlay sheet
4088,12WK,Fine,Jessica,,,y,,,,
4112,13WD,Green,Cody,,,,,,y,
4122,13WS,Harris,James,25%,,,,,y,
4129,13ZS,Ingram,Joel,25%,,,,y,,
4130,13BG,Inman,Gina,,,y,,,,
4133,13ZS,Isman,Yonina,25%,,,,,,
4142,13ZW,Johnson,Lucy,25%,,,,,,
4148,13ZB,Koffman,Ilana,,,y,,,,
4154,13AM,Lambiase,Benjamin,25%,,,,,,
4156,13ZB,Landau-Pope,Amitai,25%,,,,,,
4160,13ZB,Lee,Joshua,,,y,,,,
4168,12AF,Levy,Jordan,25%,,,,,,
4170,13AS,Lieberman,Sonny,25%,,,,,,
4178,13BG,Meisel,Natasha,25%,,,,,,
4179,13ZS,Mervis,Julia,,,y,,,,
4185,13ZB,Moses,Annalise,,,y,,,,
4226,13WD,Rosenberg,Kezia,25%,,,,,,
4227,13WD,Sacks,Michael,25%,,,y,,,SEN to check
4229,13WD,Salem,Louis,25%,,,,,,
4235,12WD,Schrank,Aroni,25%,,,,,,
4240,13AM,Shamash,Nicole,,,y,,,,
4274,13AW,Tobelem,Elisa,,,y,,,,
4290,13BP,Wood,Hannah,,,y,,,,
4318,13WD,Cohen,Kate,,,y,,,,
4320,13AW,Fisch,Katie,,,y,,,,
4329,13WD,Moss,Erika,,,,,y,,
4338,13AS,Sugarman,Gabriella,25%,,,,y,,
4342,13AW,Walker,Esther,,,,,y,,
5004,12AF,Abrahams,Zac ,25%,,,,,,
5015,12WD,Arbeid,Jonah,25%,,y,,y,,Colour blind
5016,12BT,Atia,Ben,,,,,,y,
5026,12AW,Berman,Nicole,,,,,y,,
5027,12AD,Bernstein,Adam,25%,,,,,,
5030,12AW,Biran,Noa,,,,,,y,
5040,12AF,Bray,Samuel,,,,,,y,
5045,12ZS,Carlebach,Sonnie,,,,,,y,
5049,12AF,Clements,Josef,25%,,,,,,
5050,12WP,Cohen,Ben,25%,,,,,y,
5059,12BT,Cohen,Talia,,,,,y,,
5060,12ZD,Coleman,Gabriella,25%,,,,,,
5064,12ZD,Cooper,Emma,25%,,,,,,
5068,12WK,Corin,Laila,,,,,,,Sit at front desk in Hall
5080,11WB,Katzir,Ariel,,,,,,,Bi-lingual dictionary (ivrit)
5083,12ZM,Diamond,Matilda,,,,,y,,
5090,12AF,Ezekial,Amy,25%,,,,,,
5095,12BM,Flitterman,Isabelle,,,y,,,,
5102,12BT,Friend,Miki,25%,,,,y,,
5135,12WD,Hassell,Zak,25%,,,,,y,WP or 25% ET for maths only
5143,12AD,Hyams,Chloe,25%,,,,y,,
5175,12BM,Landsman,Charley,25%,,,,,,
5176,12AF,Lang,Tamar,25%,,,,,,
5181,12AD,Lederman,Liora,25%,,,y,,,Bring in food
5201,12AW,Meir,Isabel,25%,,,,,y,
5202,12ZM,Meir,Sasha,25%,,,,,,
5203,12BT,Meranda,Noah,,,y,,,,
5216,12WK,Nesbitt,Amy,,,y,,,,
5217,12BT,Newman,Joshua,25%,,,,y,,
5220,12WD,Ostroff,David,25%,,y,,,y,Rest breaks (leave Hall)
5237,12ZM,Rand,Jared,25%,,,,,,
5251,12ZM,Sella,Roddy,25%,,,,,,
5266,12AF,Sanders,Jordanna,25%,,,,,,
5276,12WK,Shirazi,Ze'ev,,,,,,y,
5280,12AW,Simmons,Amy,25%,,,,y,,
5281,12ZS,Simmons,Talia,,,y,,,,
5292,12BM,Spencer-Dean,Chloe,,,y,,,,
5293,12ZS,Spencer-Jacobs,Maya,,,y,,,,Leave hall immed if need
5296,12WD,Stoch,Eric,25%,,,,,,
5311,12WK,Webber,Jessica,25%,,,,,,
5331,12ZD,Aminoff,George,25%,,,,,,
5336,12BM,De Beck Spitzer,Raphael,25%,,,,,,
5341,12WS,Joseph,Yehonatan,25%,,,,,,
5343,12BM,Levitt,Sara,,,y,,,,
5346,12AW,Partouche,Yossef,25%,,,,y,,
6001,11AL,Abrahams,Maital,25%,,,,y,,
6002,11WL,Abram,Michael,25%,,,,,,
6005,11ZM,Alexander,Max,,,,,,y,
6006,11ZM,Alexander-Apt,Zachary,25%,,,,,y,
6016,11WB,Asmocha,Dov,25%,,,,,,
6018,11BK,Assor,Elliott,,,,,,,Leave Hall Immediately
6019,11ZM,Austin,Joel,25%,,,y,,,
6020,11ZC,Awad,Joel,,,y,,,y,RB only for Ivrit
6023,11ZC,Balkin,Maisie,,,,,,y,
6030,11ZM,Beach,Michael,,,y,,,,
6046,11BQ,Carvin,Tomas,25%,,,,,,
6054,11WT,Collins,Jamie,25%,,,,,,
6056,11AK,Darzy,Mark,25%,,,,,,
6071,11AS,Dean,Amy,25%,,,,y,,
6073,11ZM,Dennen,Elijah,25%,,,,,,
6074,11WB,Diamond,Talia,25%,,,,y,,
6075,11BK,Domb,Aiden,25%,,y,,y,,
6081,11AK,Elf,Zack,25%,,,,,y,WP or 25% ET for maths only
6087,11BK,Flint Ashery,Ariel,25%,,,,,,
6092,11ZM,Freedman,Mikaela,25%,,,,,y,
6098,11ZC,Gellman,Joseph,,,y,y,,,
6100,11AS,Gibson,Abigail,25%,,,,,y,
6101,11ZM,Ginsberg,Ruby,25%,,y,y,,y,SR for maths and languages
6104,11WT,Godsi,Eitan,25%,,,,,,
6112,11BQ,Grant,Jack,25%,,,,,y,
6114,11AL,Grunberg,Nadav,25%,,y,,,y,"WP & RB OR ET only for Maths, Science, Elec, ICT & Astronomy)"
6118,11BK,Hall,Joshua,100%,,,,,,ET only for Ivrit Speaking
6132,11ZC,Ilan,Jordan,25%,,y,,y,,Ensure he sits in numerical order
6141,11AS,Judah,Moshe,,,y,,,,
6143,11AL,Keidar,Matan,,,,,,y,
6145,11AS,Kenley,Evie,25%,,,,,,
6150,11WL,Konn,James,,,y,y,,,Leave hall
6156,11AS,Lakeland,Samuel,25%,,,,,,
6162,11BQ,Lekerman,Ilan,25%,,,,,,
6164,11WB,Levene,Saul,25%,,y,,y,,
6166,11AS,Levine,Shaun,25%,,,,,,
6167,11AS,Levinson,Eli,,,,,,y,
6169,11AL,Levy,Avi,25%,,,,,y,
6175,11WT,Malka,Joshua,25%,,,,,,
6184,11AK,Minster,Jacob,25%,,,,,,
6186,11WB,Moore,Jemima,25%,,,,,,
6189,11ZM,Myer,Jake,,,y,,,,
6201,11ZM,Peterman,Gemma,25%,y,,,y,,SINGLE SEPARATE ROOM
6208,11BK,Raize,Daniel,25%,,,,,,
6210,11BQ,Rember,Morgan,,,,,,y,Colour blind
6231,11ZM,Saul,Abbie,25%,,,,,y,
6241,11AL,Shefi,Ben,25%,,,,,,
6242,11BK,Shefi,Nimrod,25%,,,,,,Food and insulin pump
6243,11WL,Sheldon,Ziv,,,y,,,,
6245,11BQ,Sherrard,Emma,,,,,y,y,Either WP or SR for maths and languages
6246,11AS,Shevah,Maayan,,,y,,,y,
6247,11WL,Shimansky,Abigail,,,,,,,
6250,11WT,Silver,Charlie,25%,,,,,y,
6257,11ZM,Smouha,Itay,25%,,,,,,
6258,11AL,Sofer-Yadgaroff,Lola,,,y,,,,
6260,11AS,Solomon,Mia,25%,,,,,,
6261,11WT,Solomon-Siqueira,Jazmin,25%,,,,,,
6262,11ZC,Sonn,Nathan,25%,,,,,,
6267,11BQ,Stern,Mia,25%,,,,,,
6268,11AK,Stock,Ilana,25%,,,,,,
6271,11BK,Taylor,Emma,,,y,,,,
6277,11ZM,Toorgeman,Asaf,25%,,,,,,
6279,11WT,Tropp,Ashleigh,,,,,y,y,"Either WP or SR for maths, languages"
6280,11ZM,Tropp,Katie,25%,,,,,y,
6284,11AL,Wakefield,Joshua,25%,,,,,,
6285,11WB,Wall,Francesca,25%,,,,,,
6287,11BQ,Weintroub,Harry,25%,,y,,y,y,"WP,ET,RB or SR for maths and languages"
7000,10ZW,Abraham,Raphi,25%,,,,,,
7005,10BH,Antell,Sasha,25%,,,,,,
7011,10AK,Baruch,Daniella,25%,,,,,,
7025,10BG,Berman,Joshua,25%,,,,,,
7042,10ZW,Bryk,Michelle,25%,,,,,y,
7043,10AT,Burns,Abbie,,,,,,y,
7047,10BH,Carvin,Mia,25%,,,,,,
7050,10WA,Chippeck,Hannah,25%,,,,,,
7059,10WV,Cohen,Mercedes,25%,,,,,,
7066,10WA,Cowan,Joshua,25%,,,,,y,
7071,10BH,Davidson,Jazi,25%,,,,,,
7099,10WA,Frieda,Joshua,,,,,,y,
7102,10WM,Gardner,Joel,25%,,,,,,
7106,10WV,Goldie,Reece,,,,,,y,
7107,10WA,Goldsmith,Olivia,,,y,,,,
7111,10BH,Greene,Nathan,25%,,,,,,
7112,10BH,Greene,Zac,25%,,,,,,
7113,10BG,Greenwood,Boaz,,,y,,,,
7138,10WM,Ishak,Amichai,25%,,,,,,
7139,10AT,Ishak,Amit,25%,,,,,,
7145,10WA,Jager,Ruby,25%,,,,,,
7158,10WM,Lastman,Ella,25%,,,,,,
7172,10AT,Low,Benjamin,25%,,,,,,
7175,10AT,Marmot,Dana,25%,,,,,,
7179,10ZL,Midgen,Emily,,,y,,,,
7180,10AA,Mileham,Daniella,25%,,,,,,
7184,10AT,Morris,Adam,25%,,,,,,
7191,10BH,Nesbitt,Lucy,25%,,,,,,
7197,10WV,Onona,Toby,25%,,,,,,
7210,10AT,Preston,Daniel,25%,,,,,Y,SCRIBE
7216,10AT,Renton,Alison,,,,,,y,
7221,10AT,Reyhanian,Eden,25%,,,,,,
7225,10AT,Rosenfeld,Gavriel,25%,,,,,y,SCRIBE
7234,10WM,Saffer,Hayden,,,,,y,,
7243,10AT,Shahar,David,,,,,,y,
7268,10ZW,Steinberg,Aimee,25%,,,,,,
7277,10ZW,Teeger,Aiden,,,,,,y,
7278,10ZW,Thake,Natalie,,,y,,,,Leave Hall Immediately
7281,10AA,Turofsky,Jay,,,,,,y,
7299,10BH,Zrihen,Asher,25%,,,,,,
7303,10BG,Berg,Rachel,25%,,,,,,
7307,10AA,Ono,Liam,25%,,,,,,
7280,10AA,Trober,Aaron,,,,,y,,
7265,10WM,Stalick,Tyler-Cody,25%,,,,,,
