from the module documentation:,,,,,
ncalls - for the number of calls.,,,,,
tottime - for the total time spent in the given function (and excluding time made in calls to sub-functions),,,,,
percall - is the quotient of tottime divided by ncalls,,,,,
cumtime - is the cumulative time spent in this and all subfunctions (from invocation till exit). This figure is accurate even for recursive functions.,,,,,
percall - is the quotient of cumtime divided by primitive calls,,,,,
filename:lineno(function) - provides the respective data of each function,,,,,
,,,,,
ncalls,tottime,  percall,  cumtime,  percall, filename:lineno(function)
5,0,0,0.083,0.017,readCSVtoList.py:4(fileToList)
2,0.903,0.452,1.682,0.841,readCSVtoList.py:10(formatExamsList)
1,0,0,0.001,0.001,readCSVtoList.py:53(formatAccessArraList)
1,0.42,0.42,10.719,10.719,readCSVtoList.py:62(formatExamTimes)
183,0.001,0,0.001,0,readCSVtoList.py:127(conditionalOutput)
1,7.75,7.75,78.08,78.08,outputsFiles.py:16(outputFile)
1,0.551,0.551,3.644,3.644,collateLists.py:3(collateArrangements)
1,0.001,0.001,10.721,10.721,collateLists.py:32(collateExamTimes)
1,0.308,0.308,14.68,14.68,collateLists.py:44(createInfoSheet)
1,0.325,0.325,2.203,2.203,clashesCalc.py:3(clashesReadForm)
79561,0.688,0,0.698,0,outputsFiles.py:3(widthSorting)
,,,,,
  ,,,,,
